577601 803101 509
418060 915411 525
24102 141034 354
50521 815580 509
9196 452128 449
555029 67419 470
285915 251764 407
209168 722030 509
611712 954422 525
508849 859344 525
7502 944779 525
866220 381081 525
870631 971375 507
177185 93720 383
569940 763120 509
608756 178905 470
879043 58104 525
192309 652142 509
82092 831809 509
295881 561565 470
578054 114391 470
166856 683650 509
859474 159825 525
595029 855346 525
435017 993573 525
661910 890798 525
807333 897898 525
72620 418585 449
20199 608481 470
42856 176332 383
507021 954099 525
723757 980034 525
582237 73125 470
745315 339112 509
782203 167660 509
272334 12566 443
251109 861688 525
54685 502460 449
609746 324917 470
68582 248920 443
514083 105332 470
93076 27255 351
896166 259733 525
479102 843732 525
302330 297421 371
244167 79853 443
732929 460964 509
375111 173969 443
287040 152410 443
148082 963517 525
55825 157809 383
222615 199239 386
567350 670311 509
865257 296440 525
377892 886640 525
945232 812 525
809287 220312 509
796366 941526 525
75678 587929 470
97536 592842 470
611093 432085 470
989937 319089 525
38238 383038 443
768348 310051 509
688456 963861 525
446142 743281 509
649513 91657 509
706654 47297 509
381557 604788 470
198281 705118 509
862596 974856 507
791764 194929 509
962538 277731 525
369829 315558 441
199584 470973 449
134548 775897 509
204342 138553 383
508306 808150 509
372870 291937 441
33089 445894 449
617831 737705 509
734954 796918 468
245290 836165 509
651697 214122 509
159122 189296 370
761766 51309 509
391491 79616 443
626302 684073 509
427106 615570 470
784208 517040 509
248963 398009 441
770549 5427 509
267720 776316 509
730707 59628 509
837878 920638 476
260223 817927 509
36337 287930 443
268404 675136 509
908064 770726 525
926542 766050 525
147981 21414 375
524198 336487 470
441989 181696 449
158850 481664 449
777807 660794 504
477880 878825 525
810917 870518 525
37768 327393 443
899804 964553 507
325940 175317 443
20981 308856 443
782885 388900 509
576164 252371 470
237967 459632 449
170026 767096 509
286990 893845 525
334219 855268 525
675212 994550 525
235772 360110 441
1274 794701 509
551096 447752 470
869671 419726 525
716879 392225 509
330973 845533 525
236007 200324 443
415716 885666 525
356425 725815 509
716836 309760 509
58738 451614 449
333792 763517 509
386332 866377 525
832797 426072 509
553088 763045 509
725147 206539 509
482289 691593 509
105132 557095 470
57875 292785 443
453220 299824 449
636211 934165 525
272396 200419 443
393188 887875 525
590945 619424 447
392052 232550 441
265595 807938 509
360568 929183 525
827340 552866 509
684551 291247 509
246146 769928 509
665943 481843 509
288091 250604 407
374056 517433 470
747744 811031 468
396016 399666 374
58955 464388 449
272950 941459 525
2018 454645 449
472555 676072 509
373628 467272 449
604029 721698 509
536385 72899 470
664139 184916 509
370029 166115 443
25250 800814 509
345826 584908 470
609777 946598 525
784480 946658 525
356529 100217 443
777646 527019 509
293624 184087 443
244175 391859 441
700822 488194 509
202989 525852 470
312956 688067 509
400690 803234 509
230511 367290 443
788442 479931 509
939706 634996 525
988482 728256 525
672385 298083 509
2418 419327 449
501856 926250 525
430321 212896 449
247391 904719 525
784184 472391 509
584195 81573 470
131902 472445 449
935711 570430 525
486888 367043 449
209700 598494 470
881377 25114 525
894322 391993 525
227467 65344 386
123994 222753 386
948685 23032 525
612889 170874 470
208009 997235 525
624389 671362 509
897878 626094 525
912081 643230 525
107992 588903 470
702368 312730 509
458734 484854 444
620281 449471 470
873603 708771 525
948670 493323 525
372928 986549 525
583787 662299 509
636004 729223 504
669930 414631 509
628102 65249 509
779651 718737 468
908791 990317 507
238904 576480 470
946274 718717 525
657481 107509 509
504441 432015 444
481689 1663 449
552555 591292 434
113154 370035 443
408021 798174 509
540044 827284 509
502447 435987 444
96042 981328 525
131923 954411 525
851281 408625 525
650595 309366 509
584675 938442 525
767125 432316 509
934601 840919 476
279070 180756 443
416672 165699 449
695285 856355 525
743003 774298 468
112772 699862 509
337813 535485 470
778281 908748 525
401424 582882 470
625717 633867 509
695254 367129 509
866823 974800 507
256713 157236 443
259147 154070 443
206363 781161 509
258324 182032 443
902762 124344 525
925393 741614 525
805067 892816 525
765468 790795 468
541455 250070 470
543961 621361 452
237807 822999 509
572405 204557 470
5036 885814 525
957533 881348 507
536058 234106 470
663326 98364 509
71025 792720 509
805918 858023 525
177263 267268 443
247173 502965 449
85258 243417 443
551379 142782 470
287310 649211 509
