577601 803101
418060 915411
24102 141034
50521 815580
9196 452128
555029 67419
285915 251764
209168 722030
611712 954422
508849 859344
7502 944779
866220 381081
870631 971375
177185 93720
569940 763120
608756 178905
879043 58104
192309 652142
82092 831809
295881 561565
578054 114391
166856 683650
859474 159825
595029 855346
435017 993573
661910 890798
807333 897898
72620 418585
20199 608481
42856 176332
507021 954099
723757 980034
582237 73125
745315 339112
782203 167660
272334 12566
251109 861688
54685 502460
609746 324917
68582 248920
514083 105332
93076 27255
896166 259733
479102 843732
302330 297421
244167 79853
732929 460964
375111 173969
287040 152410
148082 963517
55825 157809
222615 199239
567350 670311
865257 296440
377892 886640
945232 812
809287 220312
796366 941526
75678 587929
97536 592842
611093 432085
989937 319089
38238 383038
768348 310051
688456 963861
446142 743281
649513 91657
706654 47297
381557 604788
198281 705118
862596 974856
791764 194929
962538 277731
369829 315558
199584 470973
134548 775897
204342 138553
508306 808150
372870 291937
33089 445894
617831 737705
734954 796918
245290 836165
651697 214122
159122 189296
761766 51309
391491 79616
626302 684073
427106 615570
784208 517040
248963 398009
770549 5427
267720 776316
730707 59628
837878 920638
260223 817927
36337 287930
268404 675136
908064 770726
926542 766050
147981 21414
524198 336487
441989 181696
158850 481664
777807 660794
477880 878825
810917 870518
37768 327393
899804 964553
325940 175317
20981 308856
782885 388900
576164 252371
237967 459632
170026 767096
286990 893845
334219 855268
675212 994550
235772 360110
1274 794701
551096 447752
869671 419726
716879 392225
330973 845533
236007 200324
415716 885666
356425 725815
716836 309760
58738 451614
333792 763517
386332 866377
832797 426072
553088 763045
725147 206539
482289 691593
105132 557095
57875 292785
453220 299824
636211 934165
272396 200419
393188 887875
590945 619424
392052 232550
265595 807938
360568 929183
827340 552866
684551 291247
246146 769928
665943 481843
288091 250604
374056 517433
747744 811031
396016 399666
58955 464388
272950 941459
2018 454645
472555 676072
373628 467272
604029 721698
536385 72899
664139 184916
370029 166115
25250 800814
345826 584908
609777 946598
784480 946658
356529 100217
777646 527019
293624 184087
244175 391859
700822 488194
202989 525852
312956 688067
400690 803234
230511 367290
788442 479931
939706 634996
988482 728256
672385 298083
2418 419327
501856 926250
430321 212896
247391 904719
784184 472391
584195 81573
131902 472445
935711 570430
486888 367043
209700 598494
881377 25114
894322 391993
227467 65344
123994 222753
948685 23032
612889 170874
208009 997235
624389 671362
897878 626094
912081 643230
107992 588903
702368 312730
458734 484854
620281 449471
873603 708771
948670 493323
372928 986549
583787 662299
636004 729223
669930 414631
628102 65249
779651 718737
908791 990317
238904 576480
946274 718717
657481 107509
504441 432015
481689 1663
552555 591292
113154 370035
408021 798174
540044 827284
502447 435987
96042 981328
131923 954411
851281 408625
650595 309366
584675 938442
767125 432316
934601 840919
279070 180756
416672 165699
695285 856355
743003 774298
112772 699862
337813 535485
778281 908748
401424 582882
625717 633867
695254 367129
866823 974800
256713 157236
259147 154070
206363 781161
258324 182032
902762 124344
925393 741614
805067 892816
765468 790795
541455 250070
543961 621361
237807 822999
572405 204557
5036 885814
957533 881348
536058 234106
663326 98364
71025 792720
805918 858023
177263 267268
247173 502965
85258 243417
551379 142782
287310 649211
